@startuml
(*) --> "Authenticated and verified user reach homepage"
if "Is user admin?" then
    --> [true] "User has access to go to Admin Panel"
    partition "/admin" {
    --> "Admin verifies business"
    --> "Business is now verified"
    }
    --> (*)
else
    --> [false] "User has access to go to Dashboard"
    note left
        User cannot create programs if business is not verified
    end note
endif
--> "Is program provider verified?"
if "" then
    --> [true] "User can proceed to create programs"
    ----------> (*)
else
    partition "/biz/profile" {
        [false] if "Program Provider Type?" then
                --> [Business Entity] "Business creates a business profile"
                note left
                Business Alias is default to Business Name entered on signup
                Creates a new business entity on this tab.
                end note
                --> "Business creates primary and secondary contacts"
                note left
                Business's Account Manager's email address defaults to email address
                entered on signup.
                Request will be rejected if you are creating a second primary contact.
                By default, contacts inserted are of type SECONDARY.
                end note
                --> "Business selects programs types"
                --> "Business selects payment options"
                note left
                Only stripe has been integrated.
                Other payment options are under development
                end note
                --> "Business activates account"
                note left
                This feature is currently under development.
                Feature to edit business profile?
                Feature to preview businesss profile?
                Feature for final submit?
                end note
                --> "Business waits for admin verification"
                --> "Is program provider verified?"
        else 
            --> [Student Organization]"User fills up form details"
            note left
            This feature is currently under development
            end note
            --> (*)
        endif
    }
endif
@enduml