@startuml
!define RED_COLOR #9D0012
!define GREEN_COLOR #1D8900
!define BLUE_COLOR #3333C4
!define BROWN_COLOR #9D4200

skinparam class {
    FontColor #FFFFFF
    BorderColor #FFFFFF
    StereotypeFontColor #FFFFFF
}
skinparam Shadowing false

class XYZPage RED_COLOR
class UI GREEN_COLOR
class XYZComponent GREEN_COLOR
class XYZComponent1 GREEN_COLOR
class XYZComponent2 GREEN_COLOR
class XYZComponent3 GREEN_COLOR
class Services BLUE_COLOR
class XYZService BLUE_COLOR
class XYZComponent GREEN_COLOR
class Logic BLUE_COLOR
class "HTTP Fetch" BLUE_COLOR
class TokenService BLUE_COLOR
class DataType BROWN_COLOR
class DataEnum BROWN_COLOR

hide footbox
hide circle
hide members

XYZPage o-- UI
XYZPage o-- Logic
UI o-down- XYZComponent
XYZComponent o-- XYZComponent1
XYZComponent o-- XYZComponent2
XYZComponent o-- XYZComponent3
Logic -down- Services
Logic -down- DataEnum
Logic -down- DataType
Services o-down- XYZService
XYZService -left- TokenService
XYZService -right- "HTTP Fetch"
@enduml