<?xml version="1.0" encoding="UTF-8" standalone="no"?><svg xmlns="http://www.w3.org/2000/svg" xmlns:xlink="http://www.w3.org/1999/xlink" contentScriptType="application/ecmascript" contentStyleType="text/css" height="309px" preserveAspectRatio="none" style="width:81px;height:309px;" version="1.1" viewBox="0 0 81 309" width="81px" zoomAndPan="magnify"><defs/><g><!--MD5=[d46308ac6de47d112d305489101028fd]
class NextApp--><rect fill="#9D0012" height="24.1328" id="NextApp" style="stroke: #FFFFFF; stroke-width: 1.5;" width="57" x="9.5" y="8"/><text fill="#FFFFFF" font-family="sans-serif" font-size="12" lengthAdjust="spacingAndGlyphs" textLength="51" x="12.5" y="24.6016">NextApp</text><!--MD5=[e8d8823923596991b8cab132527541d3]
class MyApp--><rect fill="#9D0012" height="24.1328" id="MyApp" style="stroke: #FFFFFF; stroke-width: 1.5;" width="46" x="15" y="92"/><text fill="#FFFFFF" font-family="sans-serif" font-size="12" lengthAdjust="spacingAndGlyphs" textLength="40" x="18" y="108.6016">MyApp</text><!--MD5=[6a494c20d032ff54e1efa92c1369bc7b]
class Page--><rect fill="#9D0012" height="38.2656" id="Page" style="stroke: #FFFFFF; stroke-width: 1.5;" width="64" x="6" y="176"/><text fill="#FFFFFF" font-family="sans-serif" font-size="12" font-style="italic" lengthAdjust="spacingAndGlyphs" textLength="62" x="7" y="192.6016">«Interface»</text><text fill="#FFFFFF" font-family="sans-serif" font-size="12" lengthAdjust="spacingAndGlyphs" textLength="28" x="24" y="206.7344">Page</text><!--MD5=[502952b950399b4b35bb7fc63ce42a83]
class XYZPage--><rect fill="#9D0012" height="24.1328" id="XYZPage" style="stroke: #FFFFFF; stroke-width: 1.5;" width="56" x="10" y="274"/><text fill="#FFFFFF" font-family="sans-serif" font-size="12" lengthAdjust="spacingAndGlyphs" textLength="50" x="13" y="290.6016">XYZPage</text><!--MD5=[3b451762fa80ad5855ab291c29ac481f]
reverse link NextApp to MyApp--><path d="M38,52.2 C38,66.14 38,81.68 38,91.85 " fill="none" id="NextApp&lt;-MyApp" style="stroke: #A80036; stroke-width: 1.0;"/><polygon fill="none" points="31,52.06,38,32.06,45,52.06,31,52.06" style="stroke: #A80036; stroke-width: 1.0;"/><!--MD5=[b7139b37bf16f4e0a177b812e6aaa206]
reverse link MyApp to Page--><path d="M38,129.36 C38,144 38,162.33 38,175.72 " fill="none" id="MyApp&lt;-Page" style="stroke: #A80036; stroke-width: 1.0;"/><polygon fill="#FFFFFF" points="38,116.27,34,122.27,38,128.27,42,122.27,38,116.27" style="stroke: #A80036; stroke-width: 1.0;"/><!--MD5=[2ca637a7b2ad8f4bbcc3ee3a939bf55d]
reverse link Page to XYZPage--><path d="M38,234.03 C38,248.42 38,263.73 38,273.77 " fill="none" id="Page&lt;-XYZPage" style="stroke: #A80036; stroke-width: 1.0; stroke-dasharray: 7.0,7.0;"/><polygon fill="none" points="31,234.01,38,214.01,45,234.01,31,234.01" style="stroke: #A80036; stroke-width: 1.0;"/><!--MD5=[093fffc91d69c807696a385672a87c13]
@startuml
!define RED_COLOR #9D0012
!define GREEN_COLOR #1D8900
!define BLUE_COLOR #3333C4
!define BROWN_COLOR #9D4200

skinparam class {
    FontColor #FFFFFF
    BorderColor #FFFFFF
    StereotypeFontColor #FFFFFF
}
skinparam Shadowing false

class NextApp RED_COLOR
class MyApp RED_COLOR
class Page <<Interface>> RED_COLOR
class XYZPage RED_COLOR

hide footbox
hide circle
hide members
hide Hidden

NextApp <|- - MyApp
MyApp o- - Page
Page <|.. XYZPage
@enduml

@startuml

skinparam class {
    FontColor #FFFFFF
    BorderColor #FFFFFF
    StereotypeFontColor #FFFFFF
}
skinparam Shadowing false

class NextApp #9D0012
class MyApp #9D0012
class Page <<Interface>> #9D0012
class XYZPage #9D0012

hide footbox
hide circle
hide members
hide Hidden

NextApp <|- - MyApp
MyApp o- - Page
Page <|.. XYZPage
@enduml

PlantUML version 1.2020.10(Sun May 17 17:35:57 SGT 2020)
(GPL source distribution)
Java Runtime: Java(TM) SE Runtime Environment
JVM: Java HotSpot(TM) 64-Bit Server VM
Java Version: 11.0.1+13-LTS
Operating System: Mac OS X
Default Encoding: UTF-8
Language: en
Country: SG
--></g></svg>